{
    "Statement": [
      {
        "Action": [
          "ecr:GetDownloadUrlForLayer",
          "ecr:BatchGetImage",
          "ecr:BatchCheckLayerAvailability"
        ],
        "Principal": {
          "AWS": [
            "arn:aws:iam::452226382718:user/omarecr"
          ]
        },
        "Effect": "Allow",
        "Sid": "AllowPullAccess"
      }
    ],
    "Version": "2008-10-17"
  }